Text-as-Data - Course Website - Tidyverse II: Transform, and visualize
…
  r1
1  1
2  2
3  3
4  4
5  5
6  6

# now we can just join these two dataframes
new <- bind_cols(gapminder_example, random)

new

# A tibble: 1,704 × 7
   country     continent  year lifeExp      pop gdpPercap    r1
   <fct>       <fct>     <int>   <dbl>    <int>     <dbl> <int>
 1 Afghanistan Asia       1952    28.8  8425333      779.     1
 2 Afghanistan Asia       1957    30.3  9240934      821.     2
 3 Afghanistan Asia       1962    32.0 10267083      853.     3
 4 Afghanistan Asia       1967    34.0 11537966      836.     4
 5 Afghanistan Asia       1972    36.1 13079460      740.     5
 6 Afghanistan Asia       1977    38.4 14880372      786.     6
 7 Afghanistan Asia       1982    39.9 12881816      978.     7
 8 Afghanistan Asia       1987    40.8 13867957      852.     8
 9 Afghanistan Asia       1992    41.7 16317921      649.     9
10 Afghanistan Asia       1997    41.8 22227415      635.    10
# ℹ 1,694 more rows
…
more_info

  country year gdpPercap
1 Austria 2007        NA

# now we can just join these two dataframes
gapminder_added <- bind_rows(gapminder_example, more_info)

gapminder_added

# A tibble: 1,705 × 6
   country     continent  year lifeExp      pop gdpPercap
   <chr>       <fct>     <dbl>   <dbl>    <int>     <dbl>
 1 Afghanistan Asia       1952    28.8  8425333      779.
 2 Afghanistan Asia       1957    30.3  9240934      821.
 3 Afghanistan Asia       1962    32.0 10267083      853.
 4 Afghanistan Asia       1967    34.0 11537966      836.
 5 Afghanistan Asia       1972    36.1 13079460      740.
 6 Afghanistan Asia       1977    38.4 14880372      786.
 7 Afghanistan Asia       1982    39.9 12881816      978.
 8 Afghanistan Asia       1987    40.8 13867957      852.
 9 Afghanistan Asia       1992    41.7 16317921      649.
10 Afghanistan Asia       1997    41.8 22227415      635.
# ℹ 1,695 more rows
…
