Automated Data Collection - Course Website - Web scraping dynamic
…
page <- bow(links[i]) %>% scrape() 

list[[i]] <- page %>% 
        html_table()

} 

Example: Get tables from each page

Check the first list entry:

list[[1]] ## Baden-Württemberg

[[1]]
# A tibble: 35 × 7
   Merkmal         Erststimmen Erststimmen Erststimmen Zweitstimmen Zweitstimmen
   <chr>           <chr>       <chr>       <chr>       <chr>        <chr>       
 1 Merkmal         Anzahl      %           Diff. zu 2… Anzahl       %           
 2 Wahlberechtigte 7.711.531   -           -           7.711.531    -           
 3 Wählende        5.997.317   77,8        -0,5        5.997.317    77,8        
 4 Ungültige       54.574      0,9         -0,3        47.657       0,8         
 5 Gültige         5.942.743   99,1        +0,3        5.949.660    99,2        
 6 CDU             1.767.316   29,7        -9,5        1.477.612    24,8        
 7 SPD             1.247.455   21,0        +1,5        1.287.934    21,6        
 8 GRÜNE           1.058.334   17,8        +4,4        1.022.226    17,2        
 9 FDP             711.697     12,0        +3,3        908.039      15,3        
10 AfD             561.058     9,4         -2,1        571.336      9,6         
# ℹ 25 more rows
# ℹ 1 more variable: Zweitstimmen <chr>
…
