Automated Data Collection - Course Website - Space
…
library(sf)

Linking to GEOS 3.11.2, GDAL 3.7.2, PROJ 9.3.0; sf_use_s2() is TRUE

constituency_shapes <- read_sf("btw17_geometrie_wahlkreise_geo_shp/Geometrie_Wahlkreise_19DBT_geo.shp")
constituency_shapes

Simple feature collection with 299 features and 4 fields
Geometry type: MULTIPOLYGON
Dimension:     XY
Bounding box:  xmin: 5.866479 ymin: 47.27011 xmax: 15.03828 ymax: 55.05838
Geodetic CRS:  WGS 84
# A tibble: 299 × 5
   WKR_NR LAND_NR LAND_NAME          WKR_NAME                           geometry
    <dbl> <chr>   <chr>              <chr>                    <MULTIPOLYGON [°]>
 1      1 01      Schleswig-Holstein Flensburg – Schl… (((9.676908 54.83785, 9.…
 2      2 01      Schleswig-Holstein Nordfriesland – … (((8.630545 54.48889, 8.…
 3      3 01      Schleswig-Holstein Steinburg – Dith… (((8.689466 54.0485, 8.6…
 4      4 01      Schleswig-Holstein Rendsburg-Eckern… (((9.961349 54.50129, 9.…
 5      5 01      Schleswig-Holstein Kiel              (((10.18877 54.41108, 10…
 6      6 01      Schleswig-Holstein Plön – Neumünster (((10.64299 54.34371, 10…
 7      7 01      Schleswig-Holstein Pinneberg         (((9.751445 53.89304, 9.…
 8      8 01      Schleswig-Holstein Segeberg – Storm… (((10.37568 54.07279, 10…
 9      9 01      Schleswig-Holstein Ostholstein – St… (((11.11089 54.39639, 11…
10     10 01      Schleswig-Holstein Herzogtum Lauenb… (((10.86189 53.70238, 10…
# ℹ 289 more rows
…
