Text-as-Data - Course Website - Web scraping: Dynamic
…
Again: create a dataframe/tibble

press_releases <- tibble(
  text_raw = unlist(selenium_list) # unlist() to transform the list
)

press_releases

# A tibble: 306 × 1
   text_raw                                                                     
   <chr>                                                                        
 1 "Green parties from across Europe have called for deeper European integratio…
 2 "The European Green Party strongly condemns the Israeli government plans to …
 3 "As the European People’s Party is having its annual congress in Valencia th…
 4 "Climate and meteorological institutions have declared Europe the fastest wa…
 5 "Italian Prime Minister Giorgia Meloni and other European far-right politici…
 6 "const t=\"undefined\"!=typeof HTMLImageElement&&\"loading\"in HTMLImageElem…
 7 "A high-level delegation of the European Green Party will take part in the S…
 8 "The European Green Party condemns the Erdoğan government’s escalating repre…
 9 "The arrest of Istanbul Mayor Ekrem İmamoğlu is an appalling escalation in P…
10 "The executive committees of Dutch parties GroenLinks and PvdA have announce…
# ℹ 296 more rows
…
